<?xml version="1.0" standalone="no"?>
<!DOCTYPE svg PUBLIC "-//W3C//DTD SVG 20010904//EN"
 "http://www.w3.org/TR/2001/REC-SVG-20010904/DTD/svg10.dtd">
<svg version="1.0" xmlns="http://www.w3.org/2000/svg"
 width="420.000000pt" height="527.000000pt" viewBox="0 0 420.000000 527.000000"
 preserveAspectRatio="xMidYMid meet">
<metadata>
Created by potrace 1.15, written by Peter Selinger 2001-2017
</metadata>
<g transform="translate(0.000000,527.000000) scale(0.100000,-0.100000)"
fill="#1ea1b8" stroke="none">
<path d="M1485 5256 c-16 -8 -355 -340 -752 -737 -619 -621 -723 -729 -728
-759 -3 -19 -5 -768 -3 -1665 3 -1552 4 -1633 21 -1685 65 -193 213 -338 393
-384 55 -14 237 -16 1687 -16 l1626 0 78 25 c134 42 252 141 317 265 71 135
67 -36 64 2362 l-3 2163 -23 65 c-62 170 -187 292 -362 353 l-65 22 -1110 2
c-925 2 -1115 0 -1140 -11z m2290 -245 c69 -32 137 -100 168 -169 l22 -47 0
-2160 0 -2160 -28 -57 c-35 -72 -110 -140 -183 -168 -55 -20 -60 -20 -1672
-18 l-1617 3 -52 27 c-71 38 -120 89 -154 162 l-29 61 0 1610 0 1610 587 587
c324 324 592 588 596 588 5 0 7 -172 5 -382 l-3 -383 -28 -60 c-36 -76 -110
-147 -183 -175 -48 -18 -78 -20 -244 -20 l-190 0 0 -116 0 -116 203 4 c187 4
208 7 280 31 95 33 146 64 215 131 63 61 112 137 143 226 23 64 23 74 27 543
l3 477 1037 0 1037 0 60 -29z"/>
<path d="M2040 3358 c-40 -27 -32 -6 -171 -435 l-91 -283 -354 0 c-380 0 -404
-3 -438 -51 -18 -26 -21 -90 -6 -119 7 -14 515 -391 597 -444 1 -1 -48 -152
-108 -336 -60 -184 -109 -351 -109 -371 0 -73 75 -124 142 -96 18 8 158 105
311 216 155 113 284 200 292 197 7 -2 138 -96 291 -207 152 -110 290 -205 306
-210 65 -18 138 35 138 101 0 12 -49 174 -110 359 -60 186 -110 339 -110 342
0 3 130 99 289 214 159 116 296 222 305 237 20 32 20 70 2 106 -28 55 -42 57
-376 57 -334 0 -348 -2 -376 -57 -27 -52 -12 -114 35 -145 20 -13 56 -19 146
-23 l120 -5 -178 -129 c-98 -71 -185 -138 -192 -150 -25 -35 -17 -79 51 -287
36 -110 63 -203 60 -206 -3 -3 -38 19 -78 48 -283 206 -288 209 -331 209 -38
0 -60 -13 -227 -134 -101 -74 -186 -134 -187 -133 -1 2 30 101 68 222 65 200
70 222 60 256 -10 32 -34 53 -195 170 l-184 134 226 5 c230 5 250 8 283 47 9
10 47 114 85 231 37 117 71 209 75 205 4 -5 19 -48 34 -98 35 -114 47 -138 80
-153 79 -36 165 11 165 91 0 13 -43 155 -95 315 -103 314 -104 317 -176 328
-25 4 -43 0 -69 -18z"/>
</g>
</svg>
